…
``` r
dennys %>% 
  group_by(state) %>% 
  summarize(n = n()) %>%
  arrange(desc(n))
```

    ## # A tibble: 51 × 2
    ##    state     n
    ##    <chr> <int>
    ##  1 CA      403
    ##  2 TX      200
    ##  3 FL      140
    ##  4 AZ       83
    ##  5 IL       56
    ##  6 NY       56
    ##  7 WA       49
    ##  8 OH       44
    ##  9 MO       42
    ## 10 PA       40
    ## # … with 41 more rows

``` r
laquinta %>% 
  group_by(state) %>% 
  summarize(n = n()) %>%
  arrange(desc(n))
```

    ## # A tibble: 59 × 2
    ##    state     n
    ##    <chr> <int>
    ##  1 TX      237
    ##  2 FL       74
    ##  3 CA       56
    ##  4 GA       41
    ##  5 TN       30
    ##  6 OK       29
    ##  7 LA       28
    ##  8 CO       27
    ##  9 NM       19
    ## 10 NY       19
    ## # … with 49 more rows
